com\arisa\reportproject\ReportProject.class
com\arisa\reportproject\Dao.class
com\arisa\reportproject\Report1$1.class
com\arisa\reportproject\Report1$3.class
com\arisa\reportproject\DatabaseHelper.class
com\arisa\reportproject\Artist.class
com\arisa\reportproject\ArtistDao.class
com\arisa\reportproject\Report1$2.class
com\arisa\reportproject\Report1.class
com\arisa\reportproject\ArtistReport.class
com\arisa\reportproject\ArtistService.class
com\arisa\reportproject\DateLabelFormatter.class
