D:\SoftDev\ReportProject\src\main\java\com\arisa\reportproject\Report1.java
D:\SoftDev\ReportProject\src\main\java\com\arisa\reportproject\ArtistReport.java
D:\SoftDev\ReportProject\src\main\java\com\arisa\reportproject\Dao.java
D:\SoftDev\ReportProject\src\main\java\com\arisa\reportproject\ArtistDao.java
D:\SoftDev\ReportProject\src\main\java\com\arisa\reportproject\Artist.java
D:\SoftDev\ReportProject\src\main\java\com\arisa\reportproject\ArtistService.java
D:\SoftDev\ReportProject\src\main\java\com\arisa\reportproject\DatabaseHelper.java
D:\SoftDev\ReportProject\src\main\java\com\arisa\reportproject\ReportProject.java
